450x_lecture2.utf8.md
…
---

Only keep January to March and summarise:

```r
agg_flights <- mini_flights %>% mutate(ln_dist = log(distance)) %>%
	filter(month %in% 1:3) %>% 
	group_by(carrier, month) %>% 
	summarise(mean_del = mean(dep_delay, na.rm = TRUE),
		mean_dist = mean(ln_dist, na.rm = TRUE))
agg_flights
```

```
## # A tibble: 46 x 4
## # Groups:   carrier [16]
##    carrier month mean_del mean_dist
##    <chr>   <int>    <dbl>     <dbl>
##  1 9E          1   16.9        5.93
##  2 9E          2   16.5        5.91
##  3 9E          3   13.4        5.95
##  4 AA          1    6.93       7.08
##  5 AA          2    8.28       7.08
##  6 AA          3    8.70       7.08
##  7 AS          1    7.35       7.78
##  8 AS          2    0.722      7.78
##  9 AS          3    8.42       7.78
## 10 B6          1    9.49       6.71
## # … with 36 more rows
```
…
